com/phoneendpoint/entities/Phone.class
com/phoneendpoint/entities/PhoneList$PhoneListBuilder.class
PhoneEndpoint.class
com/phoneendpoint/entities/PhoneList.class
com/phoneendpoint/entities/Phone$PhoneBuilder.class
com/phoneendpoint/services/PhoneService.class
